מבוא
…
עכשיו, נראה איך נראים הנתונים עצמם, המבנה עצמו הוא מבנה “טבלאי”:

# Now to load the actual data:
kaggle_survey17 <- read_csv("01-data/kaggle-survey-2017/multipleChoiceResponses.csv")
time_spent <- kaggle_survey17 %>%
  select(one_of(kaggle_scheme$Column[221:226]), Tenure)
time_spent_gathered <- time_spent %>%
  gather(activity, percent, -Tenure) %>%
  filter(percent >=0 & percent <= 100)

# Here's what the data looks like originally
time_spent

## # A tibble: 16,716 x 7
##    TimeGatheringDa~ TimeModelBuildi~ TimeProduction TimeVisualizing
##               <int>            <int>          <int>           <int>
##  1                0              100              0               0
##  2               NA               NA             NA              NA
##  3               NA               NA             NA              NA
##  4               50               20              0              10
##  5               30               20             15              15
##  6               60               20             10              10
##  7               30               10             30              20
##  8               NA               NA             NA              NA
##  9               60               10              5              15
## 10               40               30             15              10
## # ... with 16,706 more rows, and 3 more variables:
## #   TimeFindingInsights <int>, TimeOtherSelect <int>, Tenure <chr>

יש גם לא מעט תצפיות:

# We actually have just 7500 observations because there are a lot of NAs
sum(!is.na(time_spent$TimeGatheringData))

## [1] 7530

# Here's what the data looks like after some munging
time_spent_gathered

## # A tibble: 45,121 x 3
##    Tenure             activity          percent
##    <chr>              <chr>               <int>
##  1 More than 10 years TimeGatheringData       0
##  2 More than 10 years TimeGatheringData      50
##  3 More than 10 years TimeGatheringData      30
##  4 6 to 10 years      TimeGatheringData      60
##  5 More than 10 years TimeGatheringData      30
##  6 3 to 5 years       TimeGatheringData      60
##  7 1 to 2 years       TimeGatheringData      40
##  8 3 to 5 years       TimeGatheringData      30
##  9 1 to 2 years       TimeGatheringData      35
## 10 More than 10 years TimeGatheringData      40
## # ... with 45,111 more rows
…
